Cell size data routine checks
…
checking min and max sizes by strains because I just got 18s results back and they dont quite match with the actual sizes esp tnema

mono_biov

## # A tibble: 6,814 x 26
##    plate well  nuts   temp species_richness strains div_tx obj  
##    <dbl> <chr> <chr> <dbl>            <dbl>   <dbl> <chr>  <chr>
##  1     7 2A    high      8                1       1 DB     10x  
##  2     7 2A    high      8                1       1 DB     10x  
##  3     7 2A    high      8                1       1 DB     10x  
##  4     7 2A    high      8                1       1 DB     10x  
##  5     7 2A    high      8                1       1 DB     10x  
##  6     7 2A    high      8                1       1 DB     10x  
##  7     7 2A    high      8                1       1 DB     10x  
##  8     7 2A    high      8                1       1 DB     10x  
##  9     7 2A    high      8                1       1 DB     10x  
## 10     7 2A    high      8                1       1 DB     10x  
## # ... with 6,804 more rows, and 18 more variables: images_per_sample <dbl>,
## #   entrant <chr>, cell_id <chr>, species <chr>, broken <dbl>,
## #   cell_number <dbl>, note1 <chr>, note2 <lgl>, h <dbl>, w <dbl>, d <dbl>,
## #   l <dbl>, `NA` <dbl>, biov <int>, AR <dbl>, fullname <fct>,
## #   species_full <chr>, nuts_temp <ord>
…
